<svg width="99" height="10" viewBox="0 0 99 10" fill="none" xmlns="http://www.w3.org/2000/svg">
<path d="M0.912 0.431999H4.464C5.12 0.431999 5.688 0.543999 6.168 0.767999C6.648 0.991999 7.04 1.3 7.344 1.692C7.648 2.076 7.872 2.528 8.016 3.048C8.168 3.568 8.244 4.124 8.244 4.716C8.244 5.308 8.168 5.864 8.016 6.384C7.872 6.904 7.648 7.36 7.344 7.752C7.04 8.136 6.648 8.44 6.168 8.664C5.688 8.888 5.12 9 4.464 9H0.912V0.431999ZM2.412 7.776H3.888C4.472 7.776 4.948 7.7 5.316 7.548C5.692 7.388 5.984 7.172 6.192 6.9C6.408 6.62 6.552 6.296 6.624 5.928C6.704 5.552 6.744 5.148 6.744 4.716C6.744 4.284 6.704 3.884 6.624 3.516C6.552 3.14 6.408 2.816 6.192 2.544C5.984 2.264 5.692 2.048 5.316 1.896C4.948 1.736 4.472 1.656 3.888 1.656H2.412V7.776Z" fill="#FA614B"/>
<path d="M10.8922 0.431999H12.3922V9H10.8922V0.431999Z" fill="#3D7CCC"/>
<path d="M16.536 6.144C16.536 6.472 16.592 6.752 16.704 6.984C16.816 7.216 16.972 7.408 17.172 7.56C17.372 7.704 17.6 7.812 17.856 7.884C18.12 7.948 18.404 7.98 18.708 7.98C19.036 7.98 19.316 7.944 19.548 7.872C19.78 7.792 19.968 7.692 20.112 7.572C20.256 7.452 20.36 7.316 20.424 7.164C20.488 7.004 20.52 6.844 20.52 6.684C20.52 6.356 20.444 6.116 20.292 5.964C20.148 5.804 19.988 5.692 19.812 5.628C19.508 5.516 19.152 5.412 18.744 5.316C18.344 5.212 17.848 5.08 17.256 4.92C16.888 4.824 16.58 4.7 16.332 4.548C16.092 4.388 15.9 4.212 15.756 4.02C15.612 3.828 15.508 3.624 15.444 3.408C15.388 3.192 15.36 2.972 15.36 2.748C15.36 2.316 15.448 1.944 15.624 1.632C15.808 1.312 16.048 1.048 16.344 0.84C16.64 0.632 16.976 0.48 17.352 0.383999C17.728 0.28 18.108 0.228 18.492 0.228C18.94 0.228 19.36 0.288 19.752 0.408C20.152 0.52 20.5 0.692 20.796 0.924C21.1 1.156 21.34 1.444 21.516 1.788C21.692 2.124 21.78 2.516 21.78 2.964H20.28C20.24 2.412 20.052 2.024 19.716 1.8C19.38 1.568 18.952 1.452 18.432 1.452C18.256 1.452 18.076 1.472 17.892 1.512C17.708 1.544 17.54 1.604 17.388 1.692C17.236 1.772 17.108 1.884 17.004 2.028C16.908 2.172 16.86 2.352 16.86 2.568C16.86 2.872 16.952 3.112 17.136 3.288C17.328 3.456 17.576 3.584 17.88 3.672C17.912 3.68 18.036 3.716 18.252 3.78C18.476 3.836 18.724 3.9 18.996 3.972C19.268 4.044 19.532 4.116 19.788 4.188C20.052 4.252 20.24 4.3 20.352 4.332C20.632 4.42 20.876 4.54 21.084 4.692C21.292 4.844 21.464 5.02 21.6 5.22C21.744 5.412 21.848 5.62 21.912 5.844C21.984 6.068 22.02 6.292 22.02 6.516C22.02 6.996 21.92 7.408 21.72 7.752C21.528 8.088 21.272 8.364 20.952 8.58C20.632 8.796 20.268 8.952 19.86 9.048C19.452 9.152 19.036 9.204 18.612 9.204C18.124 9.204 17.664 9.144 17.232 9.024C16.8 8.904 16.424 8.72 16.104 8.472C15.784 8.224 15.528 7.908 15.336 7.524C15.144 7.132 15.044 6.672 15.036 6.144H16.536Z" fill="#00C8C7"/>
<path d="M26.9453 0.431999H28.5413L31.8413 9H30.2333L29.4293 6.732H26.0093L25.2053 9H23.6573L26.9453 0.431999ZM26.4173 5.592H29.0333L27.7493 1.908H27.7133L26.4173 5.592ZM33.9772 0.431999H35.4772V9H33.9772V0.431999ZM38.577 0.431999H40.161L44.073 6.744H44.097V0.431999H45.525V9H43.941L40.041 2.7H40.005V9H38.577V0.431999ZM47.8012 0.431999H54.7372V1.728H52.0132V9H50.5132V1.728H47.8012V0.431999ZM57.0504 0.431999H60.8304C61.4384 0.431999 61.9344 0.52 62.3184 0.696C62.7024 0.872 62.9984 1.092 63.2064 1.356C63.4144 1.62 63.5544 1.908 63.6264 2.22C63.7064 2.532 63.7464 2.82 63.7464 3.084C63.7464 3.348 63.7064 3.636 63.6264 3.948C63.5544 4.252 63.4144 4.536 63.2064 4.8C62.9984 5.064 62.7024 5.284 62.3184 5.46C61.9344 5.628 61.4384 5.712 60.8304 5.712H58.5504V9H57.0504V0.431999ZM58.5504 4.488H60.7464C60.9144 4.488 61.0864 4.464 61.2624 4.416C61.4384 4.368 61.5984 4.292 61.7424 4.188C61.8944 4.076 62.0144 3.932 62.1024 3.756C62.1984 3.572 62.2464 3.344 62.2464 3.072C62.2464 2.792 62.2064 2.56 62.1264 2.376C62.0464 2.192 61.9384 2.048 61.8024 1.944C61.6664 1.832 61.5104 1.756 61.3344 1.716C61.1584 1.676 60.9704 1.656 60.7704 1.656H58.5504V4.488ZM66.3743 0.431999H67.8743V7.704H72.2303V9H66.3743V0.431999ZM76.877 0.431999H78.473L81.773 9H80.165L79.361 6.732H75.941L75.137 9H73.589L76.877 0.431999ZM76.349 5.592H78.965L77.681 1.908H77.645L76.349 5.592ZM85.2502 5.64L82.0342 0.431999H83.7742L86.0422 4.272L88.2742 0.431999H89.9542L86.7502 5.64V9H85.2502V5.64ZM91.9635 0.431999H95.5395C95.9155 0.431999 96.2675 0.471999 96.5955 0.551999C96.9235 0.623999 97.2115 0.747999 97.4595 0.924C97.7075 1.092 97.8995 1.316 98.0355 1.596C98.1795 1.876 98.2515 2.224 98.2515 2.64C98.2515 3.216 98.0875 3.704 97.7595 4.104C97.4395 4.496 96.9915 4.74 96.4155 4.836V4.86C96.8075 4.908 97.1155 5.012 97.3395 5.172C97.5715 5.332 97.7435 5.528 97.8555 5.76C97.9675 5.992 98.0395 6.248 98.0715 6.528C98.1035 6.808 98.1195 7.088 98.1195 7.368C98.1195 7.536 98.1195 7.7 98.1195 7.86C98.1195 8.02 98.1275 8.172 98.1435 8.316C98.1595 8.452 98.1835 8.58 98.2155 8.7C98.2555 8.82 98.3075 8.92 98.3715 9H97.7835C97.6715 8.8 97.6075 8.568 97.5915 8.304C97.5835 8.032 97.5795 7.752 97.5795 7.464C97.5795 7.176 97.5675 6.892 97.5435 6.612C97.5195 6.324 97.4435 6.068 97.3155 5.844C97.1875 5.62 96.9835 5.44 96.7035 5.304C96.4315 5.168 96.0435 5.1 95.5395 5.1H92.4915V9H91.9635V0.431999ZM95.5395 4.644C95.8515 4.644 96.1395 4.608 96.4035 4.536C96.6755 4.456 96.9075 4.336 97.0995 4.176C97.2915 4.016 97.4435 3.812 97.5555 3.564C97.6675 3.316 97.7235 3.02 97.7235 2.676C97.7235 2.356 97.6635 2.084 97.5435 1.86C97.4235 1.628 97.2635 1.44 97.0635 1.296C96.8635 1.152 96.6315 1.048 96.3675 0.983999C96.1035 0.919999 95.8275 0.887999 95.5395 0.887999H92.4915V4.644H95.5395Z" fill="black"/>
</svg>
